17

C     -0.5297789     0.9076653    -0.8166408    
O      0.2108826     2.0511612    -0.5380086    
O     -1.6593729     0.7888012    -1.2026098    
C      0.2578781    -0.3678440    -0.6117447    
N      1.7374835    -0.0980268    -0.3967801    
H      0.2827734    -1.0743403    -1.4328372    
C     -0.4325912    -1.0409021     0.6472099    
C      0.2077723    -2.4062277     0.8678547    
H      2.0225477     0.8842409    -0.5789475    
H      1.9725075    -0.3746575     0.5900356    
H     -0.2288424     2.7937531    -1.0174385    
H     -1.5396144    -1.0803590     0.5367322    
O      0.0424178    -0.2189629     1.7388143    
H     -0.1800862     0.7223288     1.7295101    
H      0.6700818    -2.9061248     0.0032111    
H     -0.6263272    -3.1447616     1.2471284    
H      0.8856470    -2.2806834     1.6094604    
